{
  "items": [
    {
      "text": "Invalid email address",
      "size": "xsmall",
      "styles": "color: red;"
    },
    {
      "text": "14 Jan 12:01am",
      "size": "xsmall",
      "styles": "color: hsl(0, 0%, 35%);"
    },
    {
      "text": "7 Nov 2024, 3:23pm",
      "size": "xsmall",
      "styles": "color: hsl(0, 0%, 35%);"
    },
    {
      "text": "Forgot password?",
      "size": "xsmall",
      "styles": "text-decoration: underline;"
    },
    {
      "text": "2 Feb 2025, 6:55am",
      "size": "xsmall",
      "styles": "color: hsl(0, 0%, 80%); background-color: hsl(0, 0%, 20%);"
    },
    {
      "text": "All Time",
      "size": "xsmall",
      "styles": "color: hsl(0, 0%, 80%); background-color: hsl(0, 0%, 20%); font-weight: 600; text-transform: uppercase; letter-spacing: 1px;"
    },
    {
      "text": "Add all previously saved albums",
      "size": "xsmall",
      "styles": "color: hsl(0, 0%, 100%); background-color: hsl(0, 0%, 20%);"
    }
  ]
}
