{
  "icons": [
    {
      "name": "GiHamburgerMenu",
      "category": "\"react-icons/gi\"",
      "svgHtml": "<svg stroke='currentColor' fill='currentColor' stroke-width='0' viewBox='0 0 512 512' height='3rem' width='3rem' xmlns='http://www.w3.org/2000/svg'><path d='M32 96v64h448V96H32zm0 128v64h448v-64H32zm0 128v64h448v-64H32z'></path></svg>",
      "comment": ""
    },
    {
      "name": "HiOutlineDotsVertical",
      "category": "\"react-icons/hi\"",
      "svgHtml": "<svg stroke='currentColor' fill='none' stroke-width='2' viewBox='0 0 24 24' aria-hidden='true' height='3rem' width='3rem' xmlns='http://www.w3.org/2000/svg'><path stroke-linecap='round' stroke-linejoin='round' d='M12 5v.01M12 12v.01M12 19v.01M12 6a1 1 0 110-2 1 1 0 010 2zm0 7a1 1 0 110-2 1 1 0 010 2zm0 7a1 1 0 110-2 1 1 0 010 2z'></path></svg>",
      "comment": ""
    },
    {
      "name": "HiOutlineDotsHorizontal",
      "category": "\"react-icons/hi\"",
      "svgHtml": "<svg stroke='currentColor' fill='none' stroke-width='2' viewBox='0 0 24 24' aria-hidden='true' height='3rem' width='3rem' xmlns='http://www.w3.org/2000/svg'><path stroke-linecap='round' stroke-linejoin='round' d='M5 12h.01M12 12h.01M19 12h.01M6 12a1 1 0 11-2 0 1 1 0 012 0zm7 0a1 1 0 11-2 0 1 1 0 012 0zm7 0a1 1 0 11-2 0 1 1 0 012 0z'></path></svg>",
      "comment": ""
    },
    {
      "name": "FiGrid",
      "category": "\"react-icons/fi\"",
      "svgHtml": "<svg stroke=\"currentColor\" fill=\"none\" stroke-width=\"2\" viewBox=\"0 0 24 24\" stroke-linecap=\"round\" stroke-linejoin=\"round\" height=\"3rem\" width=\"3rem\" xmlns=\"http://www.w3.org/2000/svg\"><rect x=\"3\" y=\"3\" width=\"7\" height=\"7\"></rect><rect x=\"14\" y=\"3\" width=\"7\" height=\"7\"></rect><rect x=\"14\" y=\"14\" width=\"7\" height=\"7\"></rect><rect x=\"3\" y=\"14\" width=\"7\" height=\"7\"></rect></svg>",
      "comment": ""
    },
    {
      "name": "FaList",
      "category": "\"react-icons/fa\"",
      "svgHtml": "<svg stroke=\"currentColor\" fill=\"currentColor\" stroke-width=\"0\" viewBox=\"0 0 512 512\" height=\"3rem\" width=\"3rem\" xmlns=\"http://www.w3.org/2000/svg\"><path d=\"M80 368H16a16 16 0 0 0-16 16v64a16 16 0 0 0 16 16h64a16 16 0 0 0 16-16v-64a16 16 0 0 0-16-16zm0-320H16A16 16 0 0 0 0 64v64a16 16 0 0 0 16 16h64a16 16 0 0 0 16-16V64a16 16 0 0 0-16-16zm0 160H16a16 16 0 0 0-16 16v64a16 16 0 0 0 16 16h64a16 16 0 0 0 16-16v-64a16 16 0 0 0-16-16zm416 176H176a16 16 0 0 0-16 16v32a16 16 0 0 0 16 16h320a16 16 0 0 0 16-16v-32a16 16 0 0 0-16-16zm0-320H176a16 16 0 0 0-16 16v32a16 16 0 0 0 16 16h320a16 16 0 0 0 16-16V80a16 16 0 0 0-16-16zm0 160H176a16 16 0 0 0-16 16v32a16 16 0 0 0 16 16h320a16 16 0 0 0 16-16v-32a16 16 0 0 0-16-16z\"></path></svg>",
      "comment": ""
    }
  ]
}
